SplineFontDB: 3.2
FontName: ttyclock
FullName: ttyclock Regular
FamilyName: ttyclock
Weight: Book
Copyright: No Copyright, do whatever you want.
Version: 1.0
ItalicAngle: 0
UnderlinePosition: 307
UnderlineWidth: 204
Ascent: 4096
Descent: 0
InvalidEm: 0
sfntRevision: 0x00010000
LayerCount: 2
Layer: 0 1 "Arri+AOgA-re" 1
Layer: 1 1 "Avant" 0
XUID: [1021 274 1478807528 512425]
StyleMap: 0x0040
FSType: 4
OS2Version: 2
OS2_WeightWidthSlopeOnly: 0
OS2_UseTypoMetrics: 0
CreationTime: 1494882979
ModificationTime: 1617374919
PfmFamily: 81
TTFWeight: 400
TTFWidth: 5
LineGap: 0
VLineGap: 0
Panose: 0 0 4 0 0 0 0 0 0 0
OS2TypoAscent: 4096
OS2TypoAOffset: 0
OS2TypoDescent: 0
OS2TypoDOffset: 0
OS2TypoLinegap: 0
OS2WinAscent: 4096
OS2WinAOffset: 0
OS2WinDescent: 0
OS2WinDOffset: 0
HheadAscent: 4096
HheadAOffset: 0
HheadDescent: 0
HheadDOffset: 0
OS2SubXSize: 2048
OS2SubYSize: 2048
OS2SubXOff: 0
OS2SubYOff: 0
OS2SupXSize: 2048
OS2SupYSize: 2048
OS2SupXOff: 0
OS2SupYOff: 2048
OS2StrikeYSize: 204
OS2StrikeYPos: 819
OS2CapHeight: 4096
OS2XHeight: 4096
OS2Vendor: 'FSTR'
OS2CodePages: 00000001.00000000
OS2UnicodeRanges: 00000001.00000000.00000000.00000000
MarkAttachClasses: 1
DEI: 91125
ShortTable: maxp 16
  1
  0
  98
  28
  5
  0
  0
  2
  0
  0
  0
  0
  0
  0
  0
  0
EndShort
LangName: 1033 "" "" "Regular" "FontForge 2.0 : ttyclock Regular : 2-4-2021" "" "Version 1.0" "" "" "" "slorrain" "" "" "" "Creative Commons CC0 Public Domain Dedication" "http://creativecommons.org/publicdomain/zero/1.0/"
GaspTable: 1 65535 2 0
Encoding: UnicodeBmp
UnicodeInterp: none
NameList: AGL For New Fonts
DisplaySize: -48
AntiAlias: 1
FitToEm: 0
WinInfo: 38 38 16
BeginChars: 65539 20

StartChar: .notdef
Encoding: 65536 -1 0
Width: 0
Flags: W
LayerCount: 2
Fore
SplineSet
2048 581 m 1,0,-1
 2048 1232 l 1,1,-1
 1396 1232 l 1,2,-1
 1396 581 l 1,3,-1
 2048 581 l 1,0,-1
2699 1343 m 1,4,-1
 2699 1994 l 1,5,-1
 1396 1994 l 1,6,-1
 1396 1343 l 1,7,-1
 2699 1343 l 1,4,-1
2048 2101 m 1,8,-1
 2048 2752 l 1,9,-1
 1396 2752 l 1,10,-1
 1396 2101 l 1,11,-1
 2048 2101 l 1,8,-1
2699 2863 m 1,12,-1
 2699 3510 l 1,13,-1
 2048 3510 l 2,14,15
 1777 3510 1777 3510 1589 3321 c 0,16,17
 1396 3129 1396 3129 1396 2863 c 1,18,-1
 2699 2863 l 1,12,-1
0 0 m 1,19,-1
 0 4096 l 1,20,-1
 4096 4096 l 1,21,-1
 4096 0 l 1,22,-1
 0 0 l 1,19,-1
EndSplineSet
Validated: 1
EndChar

StartChar: glyph1
Encoding: 65537 -1 1
Width: 0
GlyphClass: 2
Flags: W
LayerCount: 2
Fore
Validated: 1
EndChar

StartChar: glyph2
Encoding: 65538 -1 2
Width: 819
GlyphClass: 2
Flags: W
LayerCount: 2
Fore
Validated: 1
EndChar

StartChar: space
Encoding: 32 32 3
Width: 2457
GlyphClass: 2
Flags: W
LayerCount: 2
Fore
Validated: 1
EndChar

StartChar: exclam
Encoding: 33 33 4
Width: 1638
GlyphClass: 2
Flags: W
LayerCount: 2
Fore
SplineSet
0 0 m 1,0,-1
 0 819 l 1,1,-1
 819 819 l 1,2,-1
 819 0 l 1,3,-1
 0 0 l 1,0,-1
0 1638 m 1,4,-1
 0 4096 l 1,5,-1
 819 4096 l 1,6,-1
 819 1638 l 1,7,-1
 0 1638 l 1,4,-1
EndSplineSet
Validated: 1
EndChar

StartChar: quotedbl
Encoding: 34 34 5
Width: 3276
GlyphClass: 2
Flags: W
LayerCount: 2
Fore
SplineSet
0 2457 m 1,0,-1
 0 4096 l 1,1,-1
 819 4096 l 1,2,-1
 819 2457 l 1,3,-1
 0 2457 l 1,0,-1
1638 2457 m 1,4,-1
 1638 4096 l 1,5,-1
 2457 4096 l 1,6,-1
 2457 2457 l 1,7,-1
 1638 2457 l 1,4,-1
EndSplineSet
Validated: 1
EndChar

StartChar: numbersign
Encoding: 35 35 6
Width: 3276
GlyphClass: 2
Flags: W
LayerCount: 2
Fore
SplineSet
1638 1638 m 1,0,-1
 1638 2457 l 1,1,-1
 819 2457 l 1,2,-1
 819 1638 l 1,3,-1
 1638 1638 l 1,0,-1
0 0 m 1,4,-1
 0 4096 l 1,5,-1
 819 4096 l 1,6,-1
 819 3276 l 1,7,-1
 1638 3276 l 1,8,-1
 1638 4096 l 1,9,-1
 2457 4096 l 1,10,-1
 2457 0 l 1,11,-1
 1638 0 l 1,12,-1
 1638 819 l 1,13,-1
 819 819 l 1,14,-1
 819 0 l 1,15,-1
 0 0 l 1,4,-1
EndSplineSet
Validated: 1
EndChar

StartChar: dollar
Encoding: 36 36 7
Width: 3276
GlyphClass: 2
Flags: W
LayerCount: 2
Fore
SplineSet
0 0 m 1,0,-1
 0 819 l 1,1,-1
 819 819 l 1,2,-1
 819 2457 l 1,3,-1
 0 2457 l 1,4,-1
 0 3276 l 1,5,-1
 819 3276 l 1,6,-1
 819 4096 l 1,7,-1
 2457 4096 l 1,8,-1
 2457 3276 l 1,9,-1
 1638 3276 l 1,10,-1
 1638 1638 l 1,11,-1
 2457 1638 l 1,12,-1
 2457 819 l 1,13,-1
 1638 819 l 1,14,-1
 1638 0 l 1,15,-1
 0 0 l 1,0,-1
EndSplineSet
Validated: 1
EndChar

StartChar: percent
Encoding: 37 37 8
Width: 3276
GlyphClass: 2
Flags: W
LayerCount: 2
Fore
SplineSet
1638 0 m 1,0,-1
 1638 819 l 1,1,-1
 2457 819 l 1,2,-1
 2457 0 l 1,3,-1
 1638 0 l 1,0,-1
0 819 m 1,4,-1
 0 1638 l 1,5,-1
 819 1638 l 1,6,-1
 819 819 l 1,7,-1
 0 819 l 1,4,-1
819 1638 m 1,8,-1
 819 2457 l 1,9,-1
 1638 2457 l 1,10,-1
 1638 1638 l 1,11,-1
 819 1638 l 1,8,-1
1638 2457 m 1,12,-1
 1638 3276 l 1,13,-1
 2457 3276 l 1,14,-1
 2457 2457 l 1,15,-1
 1638 2457 l 1,12,-1
0 3276 m 1,16,-1
 0 4096 l 1,17,-1
 819 4096 l 1,18,-1
 819 3276 l 1,19,-1
 0 3276 l 1,16,-1
EndSplineSet
Validated: 5
EndChar

StartChar: zero
Encoding: 48 48 9
Width: 3276
GlyphClass: 2
Flags: W
LayerCount: 2
Fore
SplineSet
1638 819 m 1,0,-1
 1638 3276 l 1,1,-1
 819 3276 l 1,2,-1
 819 819 l 1,3,-1
 1638 819 l 1,0,-1
0 0 m 1,4,-1
 0 4096 l 1,5,-1
 2457 4096 l 1,6,-1
 2457 0 l 1,7,-1
 0 0 l 1,4,-1
EndSplineSet
Validated: 1
EndChar

StartChar: one
Encoding: 49 49 10
Width: 3276
GlyphClass: 2
Flags: W
LayerCount: 2
Fore
SplineSet
1638 4096 m 1,0,-1
 2457 4096 l 1,1,-1
 2457 0 l 1,2,-1
 1638 0 l 1,3,-1
 1638 4096 l 1,0,-1
EndSplineSet
Validated: 1
EndChar

StartChar: two
Encoding: 50 50 11
Width: 3276
GlyphClass: 2
Flags: W
LayerCount: 2
Fore
SplineSet
1638 3276 m 1,0,-1
 0 3276 l 1,1,-1
 0 4096 l 1,2,-1
 2457 4096 l 1,3,-1
 2457 1638 l 1,4,-1
 819 1638 l 1,5,-1
 819 819 l 1,6,-1
 2457 819 l 1,7,-1
 2457 0 l 1,8,-1
 0 0 l 1,9,-1
 0 2457 l 1,10,-1
 1638 2457 l 1,11,-1
 1638 3276 l 1,0,-1
EndSplineSet
Validated: 1
EndChar

StartChar: three
Encoding: 51 51 12
Width: 3276
GlyphClass: 2
Flags: W
LayerCount: 2
Fore
SplineSet
0 819 m 1,0,-1
 0 0 l 1,1,-1
 2457 0 l 1,2,-1
 2457 4096 l 1,3,-1
 0 4096 l 1,4,-1
 0 3275 l 1,5,-1
 1638 3276 l 1,6,-1
 1638 2457 l 1,7,-1
 -1 2457 l 1,8,-1
 0 1638 l 1,9,-1
 1639 1638 l 1,10,-1
 1638 819 l 1,11,-1
 0 819 l 1,0,-1
EndSplineSet
Validated: 9
EndChar

StartChar: four
Encoding: 52 52 13
Width: 3276
GlyphClass: 2
Flags: W
LayerCount: 2
Fore
SplineSet
1638 0 m 1,0,-1
 1638 1638 l 1,1,-1
 0 1638 l 1,2,-1
 0 4096 l 1,3,-1
 819 4096 l 1,4,-1
 819 2457 l 1,5,-1
 1638 2457 l 1,6,-1
 1638 4096 l 1,7,-1
 2457 4096 l 1,8,-1
 2457 0 l 1,9,-1
 1638 0 l 1,0,-1
EndSplineSet
Validated: 1
EndChar

StartChar: five
Encoding: 53 53 14
Width: 3276
GlyphClass: 2
Flags: W
LayerCount: 2
Fore
SplineSet
1638 819 m 1,0,-1
 0 819 l 1,1,-1
 0 0 l 1,2,-1
 2457 0 l 1,3,-1
 2457 2457 l 1,4,-1
 819 2457 l 1,5,-1
 819 3276 l 1,6,-1
 2457 3276 l 1,7,-1
 2457 4096 l 1,8,-1
 0 4096 l 1,9,-1
 0 1638 l 1,10,-1
 1638 1638 l 1,11,-1
 1638 819 l 1,0,-1
EndSplineSet
Validated: 9
EndChar

StartChar: six
Encoding: 54 54 15
Width: 3276
GlyphClass: 2
Flags: W
LayerCount: 2
Fore
SplineSet
819 1638 m 1,0,-1
 1638 1638 l 1,1,-1
 1638 819 l 1,2,-1
 819 819 l 1,3,-1
 819 1638 l 1,0,-1
0 4095 m 1,4,-1
 0 0 l 1,5,-1
 2457 0 l 1,6,-1
 2457 2457 l 1,7,-1
 819 2457 l 1,8,-1
 819 3276 l 1,9,-1
 2457 3276 l 1,10,-1
 2457 4096 l 1,11,-1
 0 4095 l 1,4,-1
EndSplineSet
Validated: 9
EndChar

StartChar: seven
Encoding: 55 55 16
Width: 3276
GlyphClass: 2
Flags: W
LayerCount: 2
Fore
SplineSet
1638 0 m 1,0,-1
 1638 3276 l 1,1,-1
 0 3276 l 1,2,-1
 0 4096 l 1,3,-1
 2457 4096 l 1,4,-1
 2457 0 l 1,5,-1
 1638 0 l 1,0,-1
EndSplineSet
Validated: 1
EndChar

StartChar: eight
Encoding: 56 56 17
Width: 3276
GlyphClass: 2
Flags: W
LayerCount: 2
Fore
SplineSet
819 3276 m 25,0,-1
 1638 3276 l 25,1,-1
 1638 2457 l 25,2,-1
 819 2457 l 25,3,-1
 819 3276 l 25,0,-1
819 1638 m 25,4,-1
 1638 1638 l 25,5,-1
 1638 819 l 25,6,-1
 819 819 l 25,7,-1
 819 1638 l 25,4,-1
2457 0 m 1,8,-1
 2457 4096 l 1,9,-1
 0 4096 l 1,10,-1
 0 0 l 1,11,-1
 2457 0 l 1,8,-1
EndSplineSet
EndChar

StartChar: nine
Encoding: 57 57 18
Width: 3276
GlyphClass: 2
Flags: W
LayerCount: 2
Fore
SplineSet
1638 2457 m 1,0,-1
 819 2457 l 1,1,-1
 819 3276 l 1,2,-1
 1638 3276 l 1,3,-1
 1638 2457 l 1,0,-1
2457 0 m 1,4,-1
 2457 4096 l 1,5,-1
 0 4096 l 1,6,-1
 0 1638 l 1,7,-1
 1638 1638 l 1,8,-1
 1638 819 l 1,9,-1
 0 819 l 1,10,-1
 0 0 l 1,11,-1
 2457 0 l 1,4,-1
EndSplineSet
Validated: 9
EndChar

StartChar: colon
Encoding: 58 58 19
Width: 1638
GlyphClass: 2
Flags: W
LayerCount: 2
Fore
SplineSet
0 819 m 1,0,-1
 0 1638 l 1,1,-1
 819 1638 l 1,2,-1
 819 819 l 1,3,-1
 0 819 l 1,0,-1
0 2457 m 1,4,-1
 0 3276 l 1,5,-1
 819 3276 l 1,6,-1
 819 2457 l 1,7,-1
 0 2457 l 1,4,-1
EndSplineSet
Validated: 1
EndChar
EndChars
EndSplineFont
